C:\USERS\VBITZA\DOCUMENTS\VISUAL STUDIO 2012\PROJECTS\3DGAME\3DGAME\DEBUG\SOURCE.OBJ
C:\USERS\VBITZA\DOCUMENTS\VISUAL STUDIO 2012\PROJECTS\3DGAME\3DGAME\DEBUG\VC110.PDB
c:\Users\vBitza\documents\visual studio 2012\Projects\3dGame\3dGame\Debug\Source.obj
c:\Users\vBitza\documents\visual studio 2012\Projects\3dGame\3dGame\Debug\cl.command.1.tlog
c:\Users\vBitza\documents\visual studio 2012\Projects\3dGame\3dGame\Debug\CL.read.1.tlog
c:\Users\vBitza\documents\visual studio 2012\Projects\3dGame\3dGame\Debug\CL.write.1.tlog
c:\Users\vBitza\documents\visual studio 2012\Projects\3dGame\3dGame\Debug\vc110.idb
c:\Users\vBitza\documents\visual studio 2012\Projects\3dGame\3dGame\Debug\vc110.pdb
